%TF.GenerationSoftware,KiCad,Pcbnew,7.0.7*%
%TF.CreationDate,2023-09-28T18:05:34+03:00*%
%TF.ProjectId,BlinkenLights,426c696e-6b65-46e4-9c69-676874732e6b,rev?*%
%TF.SameCoordinates,Original*%
%TF.FileFunction,Other,Comment*%
%FSLAX46Y46*%
G04 Gerber Fmt 4.6, Leading zero omitted, Abs format (unit mm)*
G04 Created by KiCad (PCBNEW 7.0.7) date 2023-09-28 18:05:34*
%MOMM*%
%LPD*%
G01*
G04 APERTURE LIST*
%ADD10C,0.150000*%
G04 APERTURE END LIST*
D10*
%TO.C,HOLE1*%
X197800000Y-130000000D02*
G75*
G03*
X197800000Y-130000000I-2800000J0D01*
G01*
%TO.C,HOLE2*%
X107800000Y-130000000D02*
G75*
G03*
X107800000Y-130000000I-2800000J0D01*
G01*
%TO.C,HOLE3*%
X197800000Y-40000000D02*
G75*
G03*
X197800000Y-40000000I-2800000J0D01*
G01*
%TO.C,HOLE4*%
X107800000Y-40000000D02*
G75*
G03*
X107800000Y-40000000I-2800000J0D01*
G01*
%TD*%
M02*
